<?xml version="1.0" encoding="UTF-8"?>
<svg width="24px" height="24px" viewBox="0 0 24 24" version="1.1" xmlns="http://www.w3.org/2000/svg" xmlns:xlink="http://www.w3.org/1999/xlink">
    <!-- Generator: sketchtool 50 (54983) - http://www.bohemiancoding.com/sketch -->
    <title>F3D5439B-EA33-4CC5-A897-9D1DAEB87571</title>
    <desc>Created with sketchtool.</desc>
    <defs></defs>
    <g id="Page-1" stroke="none" stroke-width="1" fill="none" fill-rule="evenodd">
        <g id="vkr-vuz" transform="translate(-240.000000, -685.000000)" stroke="#1792A7" stroke-width="3">
            <g id="descript" transform="translate(130.000000, 504.000000)">
                <g id="search" transform="translate(110.000000, 181.000000)">
                    <circle id="Oval" cx="9" cy="10" r="5.5"></circle>
                    <path d="M13,14 L21,20" id="Path-2" stroke-linecap="round"></path>
                </g>
            </g>
        </g>
    </g>
</svg>