<?xml version="1.0" encoding="UTF-8"?>
<svg width="28px" height="40px" viewBox="0 0 28 40" version="1.1" xmlns="http://www.w3.org/2000/svg" xmlns:xlink="http://www.w3.org/1999/xlink">
    <!-- Generator: sketchtool 50 (54983) - http://www.bohemiancoding.com/sketch -->
    <title>D42C3579-642E-4E6A-B0EB-0FEF8C103533</title>
    <desc>Created with sketchtool.</desc>
    <defs></defs>
    <g id="Page-1" stroke="none" stroke-width="1" fill="none" fill-rule="evenodd">
        <g id="apps-general" transform="translate(-330.000000, -1660.000000)" fill="#F2841D" fill-rule="nonzero">
            <g id="advantages" transform="translate(320.000000, 1657.000000)">
                <g id="1">
                    <path d="M24.1461043,3.5 C24.1461043,3.5 31.6904077,9.18762437 31.6904077,23.7339821 C31.6904077,32.9567114 28.9012698,38.7237259 25.2695487,39.7086121 L25.2695487,30.4259657 C25.2695487,29.8058244 24.7669946,29.3025214 24.1461043,29.3025214 C23.525214,29.3025214 23.0226599,29.8058244 23.0226599,30.4259657 L23.0226599,39.7086121 C19.3909388,38.7229769 16.6018009,32.9567114 16.6018009,23.7339821 C16.6018009,9.35389414 24.1461043,3.5 24.1461043,3.5 Z M14.5773541,30.0911793 L15.488842,30.0911793 C15.9719231,32.9619542 16.7905395,35.389343 17.8862723,37.2587544 L10.5,42.7231878 L10.5,33.5723589 C10.5,31.6497711 12.3252226,30.0911793 14.5773541,30.0911793 Z M33.7148545,30.0911793 C35.966986,30.0911793 37.7922086,31.6497711 37.7929576,33.5723589 L37.7929576,42.7231878 L30.4066853,37.2587544 C31.502418,35.389343 32.3210345,32.9619542 32.8041156,30.0911793 L33.7148545,30.0911793 Z" id="Shape"></path>
                </g>
            </g>
        </g>
    </g>
</svg>