<?xml version="1.0" encoding="UTF-8"?>
<svg width="48px" height="48px" viewBox="0 0 48 48" version="1.1" xmlns="http://www.w3.org/2000/svg" xmlns:xlink="http://www.w3.org/1999/xlink">
    <!-- Generator: sketchtool 50 (54983) - http://www.bohemiancoding.com/sketch -->
    <title>0F2779FC-2202-4476-BC47-3FC261555761</title>
    <desc>Created with sketchtool.</desc>
    <defs></defs>
    <g id="Page-1" stroke="none" stroke-width="1" fill="none" fill-rule="evenodd">
        <g id="apps-general" transform="translate(-920.000000, -1657.000000)">
            <g id="advantages" transform="translate(320.000000, 1657.000000)">
                <g id="3" transform="translate(600.000000, 0.000000)">
                    <path d="M0.775867262,27.4232638 C0.758722025,27.1596702 0.75,26.8934712 0.75,26.625 C0.75,20.6189033 5.11522369,15.75 10.5,15.75 C10.562248,15.75 10.6243598,15.7506506 10.6863301,15.7519462 C11.7567038,9.36613365 17.3100787,4.5 24,4.5 C31.2041832,4.5 37.0903686,10.1430189 37.4795198,17.2500202 C37.4863449,17.2500067 37.4931716,17.25 37.5,17.25 C42.8847763,17.25 47.25,21.4473305 47.25,26.625 C47.25,26.8076135 47.24457,26.9890075 47.2338566,27.1690408 C47.2445644,27.3611183 47.25,27.5548337 47.25,27.75 C47.25,31.8787368 44.8173719,35.3581356 41.5008042,36.4182666 C40.1945375,37.1089251 38.705439,37.5 37.125,37.5 L10.125,37.5 C4.94733047,37.5 0.75,33.3026695 0.75,28.125 C0.75,27.8889487 0.758724033,27.654935 0.775867262,27.4232638 Z" id="Combined-Shape" fill="#F2841D"></path>
                    <g id="Group-4" transform="translate(13.500000, 18.000000)" fill="#FFFFFF">
                        <path d="M6.88374513,6.95624534 L6.88374513,10.9562453 C6.88374513,12.0608148 5.98831463,12.9562453 4.88374513,12.9562453 L4.38374513,12.9562453 C3.27917563,12.9562453 2.38374513,12.0608148 2.38374513,10.9562453 L2.38374513,6.95624534 L1.20541829,6.95624534 C0.653133541,6.95624534 0.205418291,6.50853009 0.205418291,5.95624534 C0.205418291,5.76606132 0.259651663,5.57982078 0.361756803,5.41936985 L2.94642215,1.35775287 C3.53943844,0.425870124 4.77561336,0.151164586 5.70749611,0.74418088 C5.95445772,0.901338265 6.16391072,1.11079127 6.3210681,1.35775287 L8.90573345,5.41936985 C9.2022416,5.88531122 9.06488883,6.50339868 8.59894745,6.79990683 C8.43849652,6.90201197 8.25225598,6.95624534 8.06207196,6.95624534 L6.88374513,6.95624534 Z" id="Combined-Shape"></path>
                        <path d="M18.1337451,6.95624534 L18.1337451,10.9562453 C18.1337451,12.0608148 17.2383146,12.9562453 16.1337451,12.9562453 L15.6337451,12.9562453 C14.5291756,12.9562453 13.6337451,12.0608148 13.6337451,10.9562453 L13.6337451,6.95624534 L12.4554183,6.95624534 C11.9031335,6.95624534 11.4554183,6.50853009 11.4554183,5.95624534 C11.4554183,5.76606132 11.5096517,5.57982078 11.6117568,5.41936985 L14.1964222,1.35775287 C14.7894384,0.425870124 16.0256134,0.151164586 16.9574961,0.74418088 C17.2044577,0.901338265 17.4139107,1.11079127 17.5710681,1.35775287 L20.1557334,5.41936985 C20.4522416,5.88531122 20.3148888,6.50339868 19.8489475,6.79990683 C19.6884965,6.90201197 19.502256,6.95624534 19.312072,6.95624534 L18.1337451,6.95624534 Z" id="Combined-Shape-Copy" transform="translate(15.883792, 6.478123) scale(1, -1) translate(-15.883792, -6.478123) "></path>
                    </g>
                </g>
            </g>
        </g>
    </g>
</svg>