<?xml version="1.0" encoding="UTF-8"?>
<svg width="48px" height="48px" viewBox="0 0 48 48" version="1.1" xmlns="http://www.w3.org/2000/svg" xmlns:xlink="http://www.w3.org/1999/xlink">
    <!-- Generator: sketchtool 50 (54983) - http://www.bohemiancoding.com/sketch -->
    <title>8FE636B4-D16F-4201-AB1A-602F75EB8419</title>
    <desc>Created with sketchtool.</desc>
    <defs></defs>
    <g id="Page-1" stroke="none" stroke-width="1" fill="none" fill-rule="evenodd">
        <g id="apps-general" transform="translate(-616.000000, -1863.000000)" fill="#F2841D">
            <g id="advantages" transform="translate(320.000000, 1657.000000)">
                <g id="5" transform="translate(296.000000, 206.000000)">
                    <path d="M8.47,24.25 L14.78,24.25 C15.7299298,24.25 16.5,25.0200702 16.5,25.97 L16.5,38.28 C16.5,39.2299298 15.7299298,40 14.78,40 L8.47,40 C7.52007023,40 6.75,39.2299298 6.75,38.28 L6.75,25.97 C6.75,25.0200702 7.52007023,24.25 8.47,24.25 Z M20.47,15.25 L26.78,15.25 C27.7299298,15.25 28.5,16.0200702 28.5,16.97 L28.5,38.28 C28.5,39.2299298 27.7299298,40 26.78,40 L20.47,40 C19.5200702,40 18.75,39.2299298 18.75,38.28 L18.75,16.97 C18.75,16.0200702 19.5200702,15.25 20.47,15.25 Z M33.22,5.5 L39.53,5.5 C40.4799298,5.5 41.25,6.27007023 41.25,7.22 L41.25,38.28 C41.25,39.2299298 40.4799298,40 39.53,40 L33.22,40 C32.2700702,40 31.5,39.2299298 31.5,38.28 L31.5,7.22 C31.5,6.27007023 32.2700702,5.5 33.22,5.5 Z" id="Combined-Shape"></path>
                </g>
            </g>
        </g>
    </g>
</svg>