<?xml version="1.0" encoding="UTF-8"?>
<svg width="18px" height="15px" viewBox="0 0 18 15" version="1.1" xmlns="http://www.w3.org/2000/svg" xmlns:xlink="http://www.w3.org/1999/xlink">
    <!-- Generator: sketchtool 50 (54983) - http://www.bohemiancoding.com/sketch -->
    <title>FCD8EC8C-82A9-4484-B85D-E11DE603514F</title>
    <desc>Created with sketchtool.</desc>
    <defs></defs>
    <g id="Page-1" stroke="none" stroke-width="1" fill="none" fill-rule="evenodd">
        <g id="ebs" transform="translate(-529.000000, -4476.000000)" fill="#FFFFFF">
            <g id="FEATURES-BLOCK" transform="translate(0.000000, 3857.000000)">
                <g id="Switcher" transform="translate(505.000000, 598.000000)">
                    <path d="M37.5857864,29.2426407 L24,29.2426407 L24,27.2426407 L37.5857864,27.2426407 L32.7573593,22.4142136 L34.1715729,21 L41.2426407,28.0710678 L41.0710678,28.2426407 L41.2426407,28.4142136 L34.1715729,35.4852814 L32.7573593,34.0710678 L37.5857864,29.2426407 Z" id="arrw-lft" transform="translate(32.621320, 28.242641) scale(-1, 1) translate(-32.621320, -28.242641) "></path>
                </g>
            </g>
        </g>
    </g>
</svg>