<?xml version="1.0" encoding="UTF-8"?>
<svg width="33px" height="24px" viewBox="0 0 33 24" version="1.1" xmlns="http://www.w3.org/2000/svg" xmlns:xlink="http://www.w3.org/1999/xlink">
    <!-- Generator: sketchtool 51.2 (57519) - http://www.bohemiancoding.com/sketch -->
    <title>7FFE3447-67AC-49FB-ADA6-47C95A40ACA2</title>
    <desc>Created with sketchtool.</desc>
    <defs></defs>
    <g id="pages" stroke="none" stroke-width="1" fill="none" fill-rule="evenodd">
        <g id="career-inner" transform="translate(-512.000000, -1787.000000)" fill="#CDD6DD" fill-rule="nonzero">
            <g id="form" transform="translate(378.000000, 1344.000000)">
                <g transform="translate(0.000000, 47.000000)" id="cloud_drag">
                    <path d="M159.785043,420 L154.451369,420 L153.015121,420 L152.704945,420 L152.704945,412.8492 L155.044749,412.8492 C155.638128,412.8492 155.988762,412.175232 155.638128,411.689975 L151.086637,405.395114 C150.79669,404.990733 150.196567,404.990733 149.90662,405.395114 L145.355129,411.689975 C145.004495,412.175232 145.348386,412.8492 145.948508,412.8492 L148.288312,412.8492 L148.288312,420 L147.978137,420 L146.541888,420 L140.358602,420 C136.818553,419.804549 134,416.495366 134,412.909857 C134,410.436394 135.341847,408.279697 137.331018,407.113732 C137.148958,406.621735 137.054557,406.09604 137.054557,405.543387 C137.054557,403.016007 139.097671,400.973884 141.626277,400.973884 C142.172456,400.973884 142.698406,401.068239 143.190642,401.250211 C144.653862,398.149958 147.809563,396 151.477728,396 C156.224765,396.00674 160.135676,399.639427 160.580711,404.269587 C164.228647,404.896377 167,408.272957 167,412.094356 C167,416.178602 163.817327,419.716933 159.785043,420 Z"></path>
                </g>
            </g>
        </g>
    </g>
</svg>