<?xml version="1.0" encoding="UTF-8"?>
<svg width="42px" height="42px" viewBox="0 0 42 42" version="1.1" xmlns="http://www.w3.org/2000/svg" xmlns:xlink="http://www.w3.org/1999/xlink">
    <!-- Generator: sketchtool 51.2 (57519) - http://www.bohemiancoding.com/sketch -->
    <title>2601BE48-9262-443D-8047-752A5D8912F8</title>
    <desc>Created with sketchtool.</desc>
    <defs></defs>
    <g id="pages" stroke="none" stroke-width="1" fill="none" fill-rule="evenodd">
        <g id="author-1" transform="translate(-775.000000, -1496.000000)" fill="#F6A000" fill-rule="nonzero">
            <g id="02-copy" transform="translate(775.000000, 1496.000000)">
                <g id="02">
                    <path d="M12.6521739,29.5217391 L32.1304348,29.5217391 L32.1304348,7 L12.6521739,7 C10.638,7 9,8.638 9,10.6521739 L9,31.6016522 C9,33.4752174 10.638,35 12.6521739,35 L32.1304348,35 L32.1304348,33.7826087 L12.6521739,33.7826087 C11.3325217,33.7826087 10.2173913,32.7837391 10.2173913,31.6016522 C10.2173913,30.4353913 11.2868696,29.5217391 12.6521739,29.5217391 Z M13.8695652,12.173913 C13.8695652,12.005913 14.005913,11.8695652 14.173913,11.8695652 L27.5652174,11.8695652 C27.7332174,11.8695652 27.8695652,12.005913 27.8695652,12.173913 L27.8695652,15.2173913 C27.8695652,15.3853913 27.7332174,15.5217391 27.5652174,15.5217391 L14.173913,15.5217391 C14.005913,15.5217391 13.8695652,15.3853913 13.8695652,15.2173913 L13.8695652,12.173913 Z" id="law"></path>
                </g>
            </g>
        </g>
    </g>
</svg>