<?xml version="1.0" encoding="UTF-8"?>
<svg width="42px" height="42px" viewBox="0 0 42 42" version="1.1" xmlns="http://www.w3.org/2000/svg" xmlns:xlink="http://www.w3.org/1999/xlink">
    <!-- Generator: sketchtool 51.2 (57519) - http://www.bohemiancoding.com/sketch -->
    <title>1CB9A60D-EAEC-4CD8-94B5-9888A2268117</title>
    <desc>Created with sketchtool.</desc>
    <defs>
        <path d="M35,26.9 L35,10.7 C35,9.215 33.785,8 32.3,8 L16.1,8 C14.615,8 13.4,9.215 13.4,10.7 L13.4,26.9 C13.4,28.385 14.615,29.6 16.1,29.6 L32.3,29.6 C33.785,29.6 35,28.385 35,26.9 Z M20.15,21.5 L22.8905,25.1585 L26.9,20.15 L32.3,26.9 L16.1,26.9 L20.15,21.5 Z M8,13.4 L8,32.3 C8,33.785 9.215,35 10.7,35 L29.6,35 L29.6,32.3 L10.7,32.3 L10.7,13.4 L8,13.4 Z" id="path-1"></path>
    </defs>
    <g id="pages" stroke="none" stroke-width="1" fill="none" fill-rule="evenodd">
        <g id="author-1" transform="translate(-1046.000000, -1305.000000)">
            <g id="03" transform="translate(1046.000000, 1305.000000)">
                <g id="3">
                    <mask id="mask-2" fill="white">
                        <use xlink:href="#path-1"></use>
                    </mask>
                    <use id="icon/image/collections_24px" fill="#F6A000" fill-rule="nonzero" xlink:href="#path-1"></use>
                </g>
            </g>
        </g>
    </g>
</svg>