<?xml version="1.0" encoding="UTF-8"?>
<svg width="48px" height="48px" viewBox="0 0 48 48" version="1.1" xmlns="http://www.w3.org/2000/svg" xmlns:xlink="http://www.w3.org/1999/xlink">
    <!-- Generator: sketchtool 51.2 (57519) - http://www.bohemiancoding.com/sketch -->
    <title>D14C36FA-152C-44AB-85A6-94200EAAC8DE</title>
    <desc>Created with sketchtool.</desc>
    <defs>
        <path d="M23.987,11 C16.811,11 11,16.824 11,24 C11,31.176 16.811,37 23.987,37 C31.176,37 37,31.176 37,24 C37,16.824 31.176,11 23.987,11 Z M29.499,31.8 L24,28.485 L18.501,31.8 L19.957,25.547 L15.108,21.348 L21.504,20.802 L24,14.9 L26.496,20.789 L32.892,21.335 L28.043,25.534 L29.499,31.8 Z" id="path-1"></path>
    </defs>
    <g id="pages" stroke="none" stroke-width="1" fill="none" fill-rule="evenodd">
        <g id="izd-vam" transform="translate(-275.000000, -4987.000000)">
            <g id="1" transform="translate(275.000000, 4987.000000)">
                <mask id="mask-2" fill="white">
                    <use xlink:href="#path-1"></use>
                </mask>
                <use id="icon/action/stars_24px" fill="#F6A000" fill-rule="nonzero" xlink:href="#path-1"></use>
            </g>
        </g>
    </g>
</svg>