<?xml version="1.0" encoding="UTF-8"?>
<svg width="42px" height="42px" viewBox="0 0 42 42" version="1.1" xmlns="http://www.w3.org/2000/svg" xmlns:xlink="http://www.w3.org/1999/xlink">
    <!-- Generator: sketchtool 51.2 (57519) - http://www.bohemiancoding.com/sketch -->
    <title>85008749-94A4-42B0-84DA-E065EAE7E7C3</title>
    <desc>Created with sketchtool.</desc>
    <defs>
        <path d="M8.72727273,11.4545455 L6,11.4545455 L6,33.2727273 C6,34.7727273 7.22727273,36 8.72727273,36 L30.5454545,36 L30.5454545,33.2727273 L8.72727273,33.2727273 L8.72727273,11.4545455 Z M33.2727273,6 L14.1818182,6 C12.6818182,6 11.4545455,7.22727273 11.4545455,8.72727273 L11.4545455,27.8181818 C11.4545455,29.3181818 12.6818182,30.5454545 14.1818182,30.5454545 L33.2727273,30.5454545 C34.7727273,30.5454545 36,29.3181818 36,27.8181818 L36,8.72727273 C36,7.22727273 34.7727273,6 33.2727273,6 Z M33.2727273,27.8181818 L14.1818182,27.8181818 L14.1818182,8.72727273 L33.2727273,8.72727273 L33.2727273,27.8181818 Z M27.8181818,22.3636364 L22.3636364,22.3636364 L22.3636364,19.6363636 L25.0909091,19.6363636 C26.5909091,19.6363636 27.8181818,18.4227273 27.8181818,16.9090909 L27.8181818,14.1818182 C27.8181818,12.6681818 26.5909091,11.4545455 25.0909091,11.4545455 L19.6363636,11.4545455 L19.6363636,14.1818182 L25.0909091,14.1818182 L25.0909091,16.9090909 L22.3636364,16.9090909 C20.8636364,16.9090909 19.6363636,18.1227273 19.6363636,19.6363636 L19.6363636,25.0909091 L27.8181818,25.0909091 L27.8181818,22.3636364 Z" id="path-1"></path>
    </defs>
    <g id="pages" stroke="none" stroke-width="1" fill="none" fill-rule="evenodd">
        <g id="izd-vam" transform="translate(-620.000000, -3750.000000)">
            <g id="3-how-copy-2" transform="translate(620.000000, 3750.000000)">
                <mask id="mask-2" fill="white">
                    <use xlink:href="#path-1"></use>
                </mask>
                <use id="icon/image/filter_2_24px" fill="#000000" fill-rule="nonzero" xlink:href="#path-1"></use>
            </g>
        </g>
    </g>
</svg>