<?xml version="1.0" encoding="UTF-8"?>
<svg width="42px" height="42px" viewBox="0 0 42 42" version="1.1" xmlns="http://www.w3.org/2000/svg" xmlns:xlink="http://www.w3.org/1999/xlink">
    <!-- Generator: sketchtool 51.2 (57519) - http://www.bohemiancoding.com/sketch -->
    <title>AF655C79-00C0-4EA4-8D7A-E51922AF772F</title>
    <desc>Created with sketchtool.</desc>
    <defs>
        <path d="M33.25,5.25 L8.75,5.25 C6.825,5.25 5.25,6.825 5.25,8.75 L5.25,33.25 C5.25,35.175 6.825,36.75 8.75,36.75 L33.25,36.75 C35.175,36.75 36.75,35.175 36.75,33.25 L36.75,8.75 C36.75,6.825 35.175,5.25 33.25,5.25 Z M15.75,29.75 L12.25,29.75 L12.25,17.5 L15.75,17.5 L15.75,29.75 Z M22.75,29.75 L19.25,29.75 L19.25,12.25 L22.75,12.25 L22.75,29.75 Z M29.75,29.75 L26.25,29.75 L26.25,22.75 L29.75,22.75 L29.75,29.75 Z" id="path-1"></path>
    </defs>
    <g id="pages" stroke="none" stroke-width="1" fill="none" fill-rule="evenodd">
        <g id="izd-vam" transform="translate(-965.000000, -3340.000000)">
            <g id="3-how" transform="translate(965.000000, 3340.000000)">
                <mask id="mask-2" fill="white">
                    <use xlink:href="#path-1"></use>
                </mask>
                <use id="icon/editor/insert_chart_24px" fill="#F6A000" fill-rule="nonzero" xlink:href="#path-1"></use>
            </g>
        </g>
    </g>
</svg>