<?xml version="1.0" encoding="UTF-8"?>
<svg width="95px" height="64px" viewBox="0 0 95 64" version="1.1" xmlns="http://www.w3.org/2000/svg" xmlns:xlink="http://www.w3.org/1999/xlink">
    <!-- Generator: sketchtool 51.2 (57519) - http://www.bohemiancoding.com/sketch -->
    <title>3B5E24AF-0144-4828-A0AA-E390FA60597B</title>
    <desc>Created with sketchtool.</desc>
    <defs></defs>
    <g id="pages" stroke="none" stroke-width="1" fill="none" fill-rule="evenodd">
        <g id="izd-vam" transform="translate(-859.000000, -4169.000000)">
            <g id="Logo_fon2" transform="translate(859.000000, 4169.000000)">
                <path d="M67.4883,20.9208 C67.4883,31.8508 58.6273,40.7108 47.6973,40.7108 C36.7703,40.7108 27.9093,31.8508 27.9093,20.9208 C27.9093,9.9908 36.7703,1.1308 47.6973,1.1308 C58.6273,1.1308 67.4883,9.9908 67.4883,20.9208" id="Fill-1" fill="#1A1919"></path>
                <path d="M28.6572,20.9208 C28.6782,31.4338 37.1852,39.9388 47.6952,39.9588 C58.2122,39.9388 66.7172,31.4338 66.7352,20.9208 C66.7172,10.4048 58.2122,1.8998 47.6952,1.8808 C37.1852,1.8998 28.6782,10.4048 28.6572,20.9208 M27.1562,20.9208 C27.1562,9.5758 36.3552,0.3798 47.6952,0.3798 C59.0392,0.3798 68.2362,9.5758 68.2362,20.9208 C68.2362,32.2638 59.0392,41.4598 47.6952,41.4598 C36.3552,41.4598 27.1562,32.2638 27.1562,20.9208" id="Fill-3" fill="#1A1919"></path>
                <path d="M38.4028,20.9193 C38.4108,26.0503 42.5658,30.2023 47.6968,30.2113 C52.8268,30.2023 56.9788,26.0503 56.9858,20.9193 C56.9788,15.7883 52.8268,11.6363 47.6968,11.6263 C42.5658,11.6363 38.4108,15.7883 38.4028,20.9193 M36.9048,20.9193 C36.9048,14.9593 41.7378,10.1273 47.6968,10.1273 C53.6568,10.1273 58.4868,14.9593 58.4868,20.9193 C58.4868,26.8793 53.6568,31.7113 47.6968,31.7113 C41.7378,31.7113 36.9048,26.8793 36.9048,20.9193 M34.0108,20.9193 C34.0238,28.4793 40.1358,34.5913 47.6968,34.6063 C55.2558,34.5913 61.3678,28.4793 61.3808,20.9193 C61.3678,13.3603 55.2558,7.2483 47.6968,7.2343 C40.1358,7.2483 34.0238,13.3603 34.0108,20.9193 M32.5098,20.9193 C32.5098,12.5313 39.3078,5.7333 47.6968,5.7333 C56.0838,5.7333 62.8818,12.5313 62.8818,20.9193 C62.8818,29.3083 56.0838,36.1053 47.6968,36.1053 C39.3078,36.1053 32.5098,29.3083 32.5098,20.9193 M29.6168,20.9193 C29.6348,30.9053 37.7118,38.9833 47.6968,39.0003 C57.6808,38.9833 65.7578,30.9053 65.7738,20.9193 C65.7578,10.9353 57.6808,2.8563 47.6968,2.8393 C37.7118,2.8563 29.6348,10.9353 29.6168,20.9193 M28.1158,20.9193 C28.1158,10.1063 36.8818,1.3383 47.6968,1.3383 C58.5108,1.3383 67.2748,10.1063 67.2748,20.9193 C67.2748,31.7333 58.5108,40.4993 47.6968,40.4993 C36.8818,40.4993 28.1158,31.7333 28.1158,20.9193" id="Fill-5" fill="#FFFFFE"></path>
                <path d="M42.7021,20.9208 C42.7071,23.6788 44.9381,25.9068 47.6971,25.9118 C50.4521,25.9068 52.6871,23.6758 52.6901,20.9208 C52.6871,18.1628 50.4521,15.9308 47.6971,15.9248 C44.9381,15.9308 42.7071,18.1598 42.7021,20.9208 M41.3921,20.9208 C41.3921,17.4378 44.2131,14.6148 47.6971,14.6148 C51.1791,14.6148 54.0031,17.4358 54.0031,20.9208 C54.0031,24.4018 51.1791,27.2248 47.6971,27.2248 C44.2131,27.2248 41.3921,24.4018 41.3921,20.9208" id="Fill-7" fill="#FFFFFE"></path>
                <polygon id="Fill-9" fill="#1A1919" points="60.2773 14.432 50.9193 14.432 50.9193 37.845 44.4763 37.845 44.4763 14.432 35.1173 14.432 35.1173 9.179 60.2773 9.179"></polygon>
                <path d="M60.2773,14.432 L60.2773,14.057 L60.2773,14.432 Z M35.4883,14.057 L44.8473,14.057 L44.8473,37.465 L50.5423,37.465 L50.5423,14.057 L59.9003,14.057 L59.9003,9.55 L35.4883,9.55 L35.4883,14.057 Z M44.0993,38.219 L44.0993,14.805 L34.7403,14.805 L34.7403,8.804 L60.6483,8.804 L60.6483,14.432 L60.6483,14.805 L51.2923,14.805 L51.2923,38.219 L44.0993,38.219 Z" id="Fill-11" fill="#FFFFFE"></path>
                <polygon id="Fill-13" fill="#1A1919" points="0.6567 54.4066 0.6567 53.2976 8.3417 53.2976 8.3417 54.4066 5.1597 54.4066 5.1597 63.0946 3.8397 63.0946 3.8397 54.4066"></polygon>
                <polygon id="Fill-15" fill="#1A1919" points="16.1714 57.4828 16.1714 58.5918 11.0354 58.5918 11.0354 61.9858 16.8574 61.9858 16.8574 63.0948 9.7154 63.0948 9.7154 53.2968 16.7004 53.2968 16.7004 54.4068 11.0354 54.4068 11.0354 57.4828"></polygon>
                <polygon id="Fill-17" fill="#1A1919" points="18.7866 63.0951 17.0966 63.0951 20.5286 58.0771 17.2806 53.2971 18.9176 53.2971 21.3746 57.1401 23.8696 53.2971 25.3886 53.2971 22.1656 58.0501 25.5856 63.0951 23.9226 63.0951 21.3616 59.0281"></polygon>
                <polygon id="Fill-19" fill="#1A1919" points="28.0952 63.0951 26.7752 63.0951 26.7752 53.2971 28.0952 53.2971 28.0952 57.3771 33.0192 57.3771 33.0192 53.2971 34.3402 53.2971 34.3402 63.0951 33.0192 63.0951 33.0192 58.4871 28.0952 58.4871"></polygon>
                <path d="M43.312,61.1341 C43.845,60.3721 44.111,59.3931 44.111,58.1961 C44.111,56.9101 43.881,55.9791 43.417,55.3971 C42.956,54.8171 42.443,54.4381 41.879,54.2611 C41.704,54.2081 41.526,54.1721 41.346,54.1491 C41.165,54.1261 40.995,54.1161 40.836,54.1161 C40.67,54.1161 40.452,54.1361 40.184,54.1761 C39.914,54.2161 39.636,54.3061 39.344,54.4461 C38.895,54.6571 38.487,55.0471 38.117,55.6141 C37.747,56.1821 37.562,57.0431 37.562,58.1961 C37.562,58.3111 37.565,58.4271 37.569,58.5451 C37.573,58.6641 37.581,58.7811 37.588,58.8971 C37.668,59.7401 37.943,60.5161 38.414,61.2201 C38.885,61.9241 39.692,62.2761 40.836,62.2761 C41.954,62.2761 42.779,61.8961 43.312,61.1341 Z M40.836,63.3851 C39.322,63.3761 38.165,62.9071 37.364,61.9801 C36.563,61.0511 36.163,59.7901 36.163,58.1961 C36.163,56.6201 36.569,55.3621 37.384,54.4191 C38.198,53.4781 39.35,53.0071 40.836,53.0071 C42.333,53.0071 43.486,53.4781 44.296,54.4191 C45.105,55.3621 45.511,56.6201 45.511,58.1961 C45.511,59.7901 45.108,61.0511 44.302,61.9801 C43.498,62.9071 42.342,63.3721 40.836,63.3721 L40.836,63.3851 Z" id="Fill-21" fill="#1A1919"></path>
                <path d="M55.625,59.847 C55.608,60.04 55.568,60.261 55.507,60.507 C55.444,60.753 55.353,61.004 55.229,61.26 C54.982,61.787 54.569,62.27 53.988,62.705 C53.407,63.141 52.558,63.36 51.439,63.36 C51.299,63.36 51.006,63.337 50.562,63.293 C50.116,63.248 49.648,63.108 49.156,62.87 C48.556,62.589 48.011,62.105 47.518,61.418 C47.025,60.732 46.779,59.715 46.779,58.368 C46.779,58.193 46.796,57.853 46.831,57.352 C46.867,56.849 46.99,56.318 47.201,55.754 C47.465,55.067 47.914,54.44 48.548,53.871 C49.182,53.304 50.132,53.021 51.4,53.021 C52.606,53.021 53.497,53.247 54.074,53.7 C54.65,54.154 55.04,54.658 55.242,55.212 C55.312,55.406 55.366,55.597 55.4,55.786 C55.436,55.976 55.463,56.154 55.48,56.322 L54.133,56.322 C54.124,56.215 54.108,56.106 54.087,55.992 C54.064,55.876 54.032,55.762 53.988,55.649 C53.847,55.269 53.579,54.921 53.183,54.605 C52.787,54.287 52.192,54.129 51.4,54.129 C50.256,54.129 49.433,54.525 48.932,55.318 C48.43,56.11 48.178,57.11 48.178,58.315 C48.178,59.318 48.451,60.227 48.997,61.042 C49.543,61.856 50.374,62.263 51.492,62.263 C52.354,62.263 53.021,62.017 53.485,61.523 C53.952,61.031 54.213,60.472 54.266,59.847 L55.625,59.847 Z" id="Fill-23" fill="#1A1919"></path>
                <path d="M63.416,60.9554 C63.591,60.9554 63.79,60.9464 64.011,60.9304 C64.229,60.9114 64.454,60.8774 64.684,60.8244 C65.176,60.7004 65.627,60.4434 66.037,60.0524 C66.446,59.6594 66.651,59.0104 66.651,58.1034 C66.651,57.2064 66.443,56.5594 66.031,56.1624 C65.617,55.7674 65.163,55.5084 64.671,55.3844 C64.441,55.3314 64.22,55.2964 64.004,55.2784 C63.787,55.2604 63.591,55.2514 63.416,55.2514 L63.046,55.2514 L63.046,60.9554 L63.416,60.9554 Z M61.726,55.2514 L61.356,55.2514 C60.361,55.2514 59.639,55.4304 59.19,55.7864 C58.741,56.1434 58.442,56.5324 58.293,56.9544 C58.222,57.1664 58.176,57.3714 58.153,57.5694 C58.132,57.7674 58.121,57.9444 58.121,58.1034 C58.121,58.2624 58.129,58.4344 58.147,58.6194 C58.165,58.8044 58.205,58.9934 58.266,59.1864 C58.398,59.6264 58.687,60.0314 59.131,60.4014 C59.576,60.7704 60.317,60.9554 61.356,60.9554 L61.726,60.9554 L61.726,55.2514 Z M61.726,61.9854 L61.184,61.9854 C60.937,61.9854 60.647,61.9654 60.313,61.9274 C59.978,61.8874 59.63,61.8094 59.27,61.6954 C58.645,61.4934 58.068,61.1204 57.54,60.5794 C57.013,60.0374 56.748,59.2124 56.748,58.1034 C56.748,56.9854 57.013,56.1564 57.54,55.6144 C58.068,55.0734 58.654,54.7014 59.296,54.4994 C59.648,54.3854 59.99,54.3094 60.32,54.2744 C60.65,54.2384 60.937,54.2224 61.184,54.2224 L61.726,54.2224 L61.726,52.7434 L63.046,52.7434 L63.046,54.2224 L63.587,54.2224 C63.834,54.2224 64.12,54.2384 64.446,54.2744 C64.771,54.3094 65.106,54.3814 65.449,54.4864 C66.092,54.6804 66.682,55.0474 67.219,55.5894 C67.755,56.1294 68.024,56.9694 68.024,58.1034 C68.024,59.1594 67.779,59.9564 67.291,60.4944 C66.804,61.0304 66.269,61.4094 65.687,61.6294 C65.265,61.7874 64.86,61.8874 64.472,61.9274 C64.085,61.9654 63.79,61.9854 63.587,61.9854 L63.046,61.9854 L63.046,63.4654 L61.726,63.4654 L61.726,61.9854 Z" id="Fill-25" fill="#1A1919"></path>
                <polygon id="Fill-27" fill="#1A1919" points="76.2627 57.4828 76.2627 58.5918 71.1267 58.5918 71.1267 61.9858 76.9497 61.9858 76.9497 63.0948 69.8067 63.0948 69.8067 53.2968 76.7907 53.2968 76.7907 54.4068 71.1267 54.4068 71.1267 57.4828"></polygon>
                <path d="M79.6963,58.0775 L82.0983,58.0775 C82.9793,58.0775 83.5743,57.8905 83.8823,57.5165 C84.1903,57.1425 84.3433,56.6815 84.3433,56.1375 C84.3433,55.4845 84.1413,55.0335 83.7363,54.7835 C83.3323,54.5315 82.7863,54.4065 82.0983,54.4065 L79.6963,54.4065 L79.6963,58.0775 Z M82.3633,53.2975 C83.4633,53.2975 84.2943,53.5305 84.8513,53.9975 C85.4113,54.4645 85.6913,55.1685 85.6913,56.1095 C85.6913,56.9375 85.4533,57.6575 84.9783,58.2685 C84.5023,58.8815 83.5913,59.1865 82.2443,59.1865 L79.6963,59.1865 L79.6963,63.0955 L78.3763,63.0955 L78.3763,53.2975 L82.3633,53.2975 Z" id="Fill-29" fill="#1A1919"></path>
                <path d="M92.2129,59.4505 L90.4969,54.6315 L88.7809,59.4505 L92.2129,59.4505 Z M87.4999,63.0955 L86.0869,63.0955 L89.7969,53.2975 L91.2099,53.2975 L94.9209,63.0955 L93.5079,63.0955 L92.5699,60.5595 L88.4249,60.5595 L87.4999,63.0955 Z" id="Fill-31" fill="#1A1919"></path>
            </g>
        </g>
    </g>
</svg>