<?xml version="1.0" encoding="UTF-8"?>
<svg width="339px" height="288px" viewBox="0 0 339 288" version="1.1" xmlns="http://www.w3.org/2000/svg" xmlns:xlink="http://www.w3.org/1999/xlink">
    <!-- Generator: sketchtool 51.2 (57519) - http://www.bohemiancoding.com/sketch -->
    <title>5F227B71-02A1-45E1-8759-D66FD42392E9</title>
    <desc>Created with sketchtool.</desc>
    <defs></defs>
    <g id="pages" stroke="none" stroke-width="1" fill="none" fill-rule="evenodd" opacity="0.38">
        <g id="knigoizd-deyatelnost" transform="translate(-1081.000000, -1051.000000)" fill="#E3E1E1" fill-rule="nonzero">
            <g id="garant" transform="translate(723.000000, 1051.000000)">
                <path d="M694.654667,202.581988 L647.04008,123.21613 L681.446705,123.21613 C689.952866,123.21613 696.848977,116.320019 696.848977,107.813857 C696.848977,99.3076949 689.952866,92.4115839 681.446705,92.4115839 L542.827275,92.4115839 L542.827275,15.4022729 C542.827275,6.896111 535.931164,0 527.425002,0 C518.91884,0 512.022729,6.896111 512.022729,15.4022729 L512.022729,92.4115839 L373.402273,92.4115839 C364.896111,92.4115839 358,99.3076949 358,107.813857 C358,116.320019 364.896111,123.21613 373.402273,123.21613 L407.808897,123.21613 L360.19431,202.581988 L360.200471,202.603552 C358.812213,204.915946 358,207.612371 358,210.505944 C358,252.970011 392.546271,287.517309 435.011365,287.517309 C477.476458,287.517309 512.022729,252.970011 512.022729,210.505944 C512.022729,207.613398 511.210516,204.915946 509.822258,202.603552 L509.828419,202.581988 L462.213832,123.21613 L592.636172,123.21613 L545.021586,202.581988 L545.02672,202.603552 C543.639488,204.915946 542.827275,207.613398 542.827275,210.505944 C542.827275,252.970011 577.373546,287.517309 619.83864,287.517309 C662.301679,287.517309 696.850004,252.970011 696.850004,210.505944 C696.850004,207.613398 696.037791,204.915946 694.649533,202.603552 L694.654667,202.581988 Z M469.417989,195.103672 L400.604741,195.103672 L435.011365,137.752795 L469.417989,195.103672 Z M585.430989,195.103672 L619.83864,137.752795 L654.245264,195.103672 L585.430989,195.103672 Z" id="case-icon"></path>
            </g>
        </g>
    </g>
</svg>