<?xml version="1.0" encoding="UTF-8"?>
<svg width="426px" height="286px" viewBox="0 0 426 286" version="1.1" xmlns="http://www.w3.org/2000/svg" xmlns:xlink="http://www.w3.org/1999/xlink">
    <!-- Generator: sketchtool 50 (54983) - http://www.bohemiancoding.com/sketch -->
    <title>3F617536-6F87-4AD3-B7A9-73A8CF98A93C</title>
    <desc>Created with sketchtool.</desc>
    <defs></defs>
    <g id="Page-1" stroke="none" stroke-width="1" fill="none" fill-rule="evenodd">
        <g id="main-page" transform="translate(-964.000000, -1197.000000)">
            <g id="2-SCREEN" transform="translate(50.000000, 880.000000)">
                <g id="shop" transform="translate(914.000000, 317.000000)">
                    <path d="M195.117676,154.292969 C192.35399,154.292969 190.208015,153.558113 188.679688,152.088379 C187.15136,150.618645 186.387207,148.526381 186.387207,145.811523 C186.387207,143.008775 187.095208,140.857918 188.51123,139.358887 C189.927253,137.859856 191.948717,137.110352 194.575684,137.110352 C197.075696,137.110352 199.006829,137.762201 200.369141,139.065918 C201.731452,140.369635 202.412598,142.247058 202.412598,144.698242 L202.412598,147.24707 L192.17334,147.24707 C192.212403,148.174809 192.551755,148.902341 193.191406,149.429688 C193.831058,149.957034 194.702631,150.220703 195.806152,150.220703 C196.812017,150.220703 197.7373,150.125489 198.582031,149.935059 C199.426762,149.744628 200.34228,149.419924 201.328613,148.960938 L201.328613,153.077148 C200.430171,153.536135 199.502446,153.853515 198.54541,154.029297 C197.588374,154.205079 196.445807,154.292969 195.117676,154.292969 Z M194.780762,141.006836 C194.10693,141.006836 193.542971,141.219236 193.088867,141.644043 C192.634763,142.06885 192.368653,142.735347 192.290527,143.643555 L197.212402,143.643555 C197.192871,142.842769 196.965822,142.203127 196.53125,141.724609 C196.096678,141.246091 195.513187,141.006836 194.780762,141.006836 Z M204.302246,148.243164 L204.302246,143.672852 L212.578613,143.672852 L212.578613,148.243164 L204.302246,148.243164 Z M229.526855,147.496094 C229.526855,148.824225 229.189945,150.003413 228.516113,151.033691 C227.842282,152.06397 226.870612,152.864743 225.601074,153.436035 C224.331537,154.007327 222.842294,154.292969 221.133301,154.292969 C219.707512,154.292969 218.511235,154.192872 217.544434,153.992676 C216.577632,153.792479 215.571783,153.443362 214.526855,152.945312 L214.526855,147.789062 C215.630377,148.355472 216.777826,148.797362 217.969238,149.114746 C219.16065,149.43213 220.25439,149.59082 221.250488,149.59082 C222.109868,149.59082 222.739744,149.441896 223.140137,149.144043 C223.540529,148.84619 223.740723,148.462893 223.740723,147.994141 C223.740723,147.70117 223.660157,147.444825 223.499023,147.225098 C223.33789,147.00537 223.079103,146.783204 222.722656,146.558594 C222.366209,146.333983 221.416512,145.875003 219.873535,145.181641 C218.477044,144.546872 217.429691,143.931644 216.731445,143.335938 C216.0332,142.740231 215.515627,142.056644 215.178711,141.285156 C214.841795,140.513668 214.67334,139.600591 214.67334,138.545898 C214.67334,136.573232 215.391106,135.035162 216.82666,133.931641 C218.262214,132.828119 220.234851,132.276367 222.744629,132.276367 C224.961437,132.276367 227.222156,132.789057 229.526855,133.814453 L227.754395,138.282227 C225.752431,137.364253 224.023933,136.905273 222.568848,136.905273 C221.816891,136.905273 221.270021,137.037108 220.928223,137.300781 C220.586424,137.564454 220.415527,137.8916 220.415527,138.282227 C220.415527,138.702151 220.63281,139.078123 221.067383,139.410156 C221.501955,139.742189 222.681143,140.347652 224.60498,141.226562 C226.450693,142.056645 227.732418,142.947749 228.450195,143.899902 C229.167972,144.852056 229.526855,146.050774 229.526855,147.496094 Z M251.191895,154 L245.376465,154 L245.376465,145.269531 L238.652832,145.269531 L238.652832,154 L232.837402,154 L232.837402,132.583984 L238.652832,132.583984 L238.652832,140.523438 L245.376465,140.523438 L245.376465,132.583984 L251.191895,132.583984 L251.191895,154 Z M275.859863,143.262695 C275.859863,146.866229 274.976083,149.605459 273.208496,151.480469 C271.440909,153.355478 268.853044,154.292969 265.444824,154.292969 C262.085432,154.292969 259.509775,153.350595 257.717773,151.46582 C255.925772,149.581045 255.029785,146.836932 255.029785,143.233398 C255.029785,139.668927 255.92089,136.946787 257.703125,135.066895 C259.48536,133.187002 262.075667,132.24707 265.474121,132.24707 C268.882341,132.24707 271.465323,133.179678 273.223145,135.044922 C274.980966,136.910166 275.859863,139.649396 275.859863,143.262695 Z M261.123535,143.262695 C261.123535,147.403341 262.56395,149.473633 265.444824,149.473633 C266.909675,149.473633 267.99609,148.970708 268.704102,147.964844 C269.412113,146.958979 269.766113,145.391612 269.766113,143.262695 C269.766113,141.124013 269.40723,139.544439 268.689453,138.523926 C267.971676,137.503413 266.899909,136.993164 265.474121,136.993164 C262.573716,136.993164 261.123535,139.082987 261.123535,143.262695 Z M295.269043,139.395508 C295.269043,141.788098 294.563484,143.636224 293.152344,144.939941 C291.741204,146.243659 289.736829,146.895508 287.13916,146.895508 L285.513184,146.895508 L285.513184,154 L279.727051,154 L279.727051,132.583984 L287.13916,132.583984 C289.844252,132.583984 291.875481,133.174799 293.23291,134.356445 C294.590339,135.538092 295.269043,137.217763 295.269043,139.395508 Z M285.513184,142.178711 L286.567871,142.178711 C287.437016,142.178711 288.127927,141.934573 288.640625,141.446289 C289.153323,140.958005 289.409668,140.284184 289.409668,139.424805 C289.409668,137.979485 288.608895,137.256836 287.007324,137.256836 L285.513184,137.256836 L285.513184,142.178711 Z" id="IPR-e-SHOP" fill="#262626"></path>
                    <polygon id="Path" fill="#F6A000" points="129.946777 154 129.946777 132.583984 135.762207 132.583984 135.762207 154"></polygon>
                    <path d="M155.933105,139.395508 C155.933105,141.788098 155.227546,143.636224 153.816406,144.939941 C152.405266,146.243659 150.400892,146.895508 147.803223,146.895508 L146.177246,146.895508 L146.177246,154 L140.391113,154 L140.391113,132.583984 L147.803223,132.583984 C150.508314,132.583984 152.539544,133.174799 153.896973,134.356445 C155.254401,135.538092 155.933105,137.217763 155.933105,139.395508 Z" id="Path" fill="#F6A000"></path>
                    <path d="M146.177246,142.178711 L147.231934,142.178711 C148.101079,142.178711 148.79199,141.934573 149.304688,141.446289 C149.817385,140.958005 150.07373,140.284184 150.07373,139.424805 C150.07373,137.979485 149.272957,137.256836 147.671387,137.256836 L146.177246,137.256836 L146.177246,142.178711 Z" id="Path" fill="#FFFFFF"></path>
                    <path d="M165.132324,146.207031 L165.132324,154 L159.346191,154 L159.346191,132.583984 L166.362793,132.583984 C172.183135,132.583984 175.093262,134.693338 175.093262,138.912109 C175.093262,141.392591 173.882336,143.311517 171.460449,144.668945 L177.700684,154 L171.138184,154 L166.597168,146.207031 L165.132324,146.207031 Z" id="Path" fill="#F6A000"></path>
                    <path d="M165.132324,141.856445 L166.216309,141.856445 C168.237803,141.856445 169.248535,140.9629 169.248535,139.175781 C169.248535,137.701165 168.257334,136.963867 166.274902,136.963867 L165.132324,136.963867 L165.132324,141.856445 Z" id="Path" fill="#FFFFFF"></path>
                </g>
            </g>
        </g>
    </g>
</svg>