<?xml version="1.0" encoding="UTF-8"?>
<svg width="48px" height="48px" viewBox="0 0 48 48" version="1.1" xmlns="http://www.w3.org/2000/svg" xmlns:xlink="http://www.w3.org/1999/xlink">
    <!-- Generator: sketchtool 51.2 (57519) - http://www.bohemiancoding.com/sketch -->
    <title>E7B420AF-8329-432B-8C75-DD630CAB96CD</title>
    <desc>Created with sketchtool.</desc>
    <defs>
        <path d="M29.04,21.8236364 L25.54,26.3290909 L23.0454545,23.3254545 L19.5454545,27.8181818 L33.5454545,27.8181818 L29.04,21.8236364 Z M12.5454545,15.0909091 L10,15.0909091 L10,35.4545455 C10,36.8545455 11.1454545,38 12.5454545,38 L32.9090909,38 L32.9090909,35.4545455 L12.5454545,35.4545455 L12.5454545,15.0909091 Z M35.4545455,10 L17.6363636,10 C16.2363636,10 15.0909091,11.1454545 15.0909091,12.5454545 L15.0909091,30.3636364 C15.0909091,31.7636364 16.2363636,32.9090909 17.6363636,32.9090909 L35.4545455,32.9090909 C36.8545455,32.9090909 38,31.7636364 38,30.3636364 L38,12.5454545 C38,11.1454545 36.8545455,10 35.4545455,10 Z M35.4545455,30.3636364 L17.6363636,30.3636364 L17.6363636,12.5454545 L35.4545455,12.5454545 L35.4545455,30.3636364 Z" id="path-1"></path>
    </defs>
    <g id="pages" stroke="none" stroke-width="1" fill="none" fill-rule="evenodd">
        <g id="universities" transform="translate(-573.000000, -2678.000000)">
            <g id="Group-Copy" transform="translate(-154.000000, 2290.000000)">
                <g id="2" transform="translate(727.000000, 388.000000)">
                    <mask id="mask-2" fill="white">
                        <use xlink:href="#path-1"></use>
                    </mask>
                    <use id="2c" fill="#F6A000" fill-rule="nonzero" xlink:href="#path-1"></use>
                </g>
            </g>
        </g>
    </g>
</svg>