<?xml version="1.0" encoding="UTF-8"?>
<svg width="48px" height="48px" viewBox="0 0 48 48" version="1.1" xmlns="http://www.w3.org/2000/svg" xmlns:xlink="http://www.w3.org/1999/xlink">
    <!-- Generator: sketchtool 51.2 (57519) - http://www.bohemiancoding.com/sketch -->
    <title>B908C29A-6DCA-4ADF-B987-A82F3C0ECE08</title>
    <desc>Created with sketchtool.</desc>
    <defs></defs>
    <g id="pages" stroke="none" stroke-width="1" fill="none" fill-rule="evenodd">
        <g id="universities" transform="translate(-262.000000, -1912.000000)" fill="#F6A000">
            <g id="izd" transform="translate(256.000000, 1628.000000)">
                <g id="4" transform="translate(6.000000, 284.000000)">
                    <path d="M31.2900512,12.0726868 C31.6975592,11.6651788 32.1203425,11.4512403 32.5584136,11.4308649 C32.9964847,11.4104895 33.3836115,11.5174588 33.7198056,11.7517759 C34.0559997,11.986093 34.2954071,12.3222821 34.4380349,12.7603532 C34.5806627,13.1984243 34.5399125,13.6721452 34.3157831,14.1815303 C34.2342815,14.3649089 34.132406,14.5279096 34.0101536,14.6705374 C33.8879012,14.8131652 33.7656506,14.9659784 33.6433982,15.1289816 C33.3173918,15.5976159 33.042328,15.9898364 32.8181986,16.3056551 C32.5940692,16.6214738 32.375037,16.9271003 32.1610953,17.2225436 C31.9471535,17.5179869 31.7230275,17.8388946 31.4887104,18.1852764 C31.2543933,18.5316582 30.9538606,18.9697228 30.5871034,19.4994832 C29.3034532,21.3536446 28.0300098,23.1924969 26.7667349,25.0160953 C25.5034601,26.8396936 24.2300167,28.6683584 22.9463665,30.5021444 C22.6814863,30.889277 22.4217038,31.2713101 22.1670113,31.648255 C21.9123188,32.0251999 21.6423488,32.3970454 21.3570932,32.7638026 C21.1533392,33.0490582 20.9394007,33.3444971 20.7152713,33.6501281 C20.4911419,33.9557591 20.2415469,34.2104478 19.966479,34.4142018 C19.6914111,34.6179558 19.3959723,34.7503939 19.0801535,34.8115201 C18.7643348,34.8726463 18.4026769,34.7911459 17.9951689,34.5670165 C17.4857839,34.2817609 17.1954388,33.9404781 17.1241249,33.5431578 C17.052811,33.1458374 17.1037487,32.7383355 17.2769396,32.3206398 C17.4501305,31.9029441 17.6844441,31.4954422 17.9798874,31.0981219 C18.2753307,30.7008016 18.5249256,30.3595188 18.7286796,30.0742632 C19.0139353,29.6667552 19.2991866,29.2541595 19.5844422,28.8364638 C19.8696978,28.4187681 20.1549491,28.0061724 20.4402047,27.5986644 C22.2536154,24.9906131 24.0517175,22.4029761 25.834565,19.8356756 C27.6174126,17.2683752 29.4358898,14.6807381 31.2900512,12.0726868 Z M15,16.5960031 C15.1222524,15.7606117 15.3463784,14.9710768 15.6723849,14.2273747 C15.9983913,13.4836726 16.5485188,12.8775135 17.322784,12.4088793 C18.1581755,11.8791189 19.024117,11.6091489 19.9206346,11.5989612 C20.8171522,11.5887735 21.6423436,11.7823369 22.3962334,12.1796572 C23.1501232,12.5769775 23.7766574,13.1423864 24.2758547,13.8759008 C24.775052,14.6094152 25.0552096,15.4651692 25.1163358,16.4431884 C25.1570866,17.2785798 24.988992,18.063021 24.6120471,18.7965354 C24.2351022,19.5300498 23.7257248,20.1413027 23.0838997,20.6303123 C22.4420746,21.1193219 21.7187587,21.4555109 20.9139304,21.6388895 C20.1091021,21.8222681 19.3093796,21.7917055 18.514739,21.5472007 C17.4144674,21.2008189 16.5994636,20.589566 16.0697032,19.7134238 C15.5399428,18.8372816 15.1935662,17.8694646 15.0305629,16.8099438 L15,16.5960031 Z M26.6139202,29.7991966 C26.7157972,29.106433 26.8838917,28.4238673 27.1182088,27.7514791 C27.352526,27.0790909 27.7753092,26.5187758 28.3865712,26.070517 C29.2219626,25.459255 30.1031855,25.1026908 31.0302662,25.0008138 C31.9573469,24.8989368 32.8232884,25.0160936 33.6281168,25.3522877 C34.4329451,25.6884818 35.110417,26.2233281 35.6605528,26.9568425 C36.2106886,27.6903569 36.516315,28.5868611 36.5774412,29.6463819 C36.618192,30.5632749 36.4348162,31.3884663 36.0273082,32.1219807 C35.6198002,32.8554951 35.0747664,33.4514666 34.3921904,33.9099131 C33.7096145,34.3683596 32.9455485,34.653611 32.0999694,34.7656757 C31.2543902,34.8777404 30.4241051,34.7707711 29.6090891,34.4447647 C28.6921961,34.0780075 27.9994429,33.4769422 27.5308086,32.6415508 C27.0621744,31.8061594 26.7667356,30.9300303 26.6444832,30.0131373 L26.6139202,29.7991966 Z M19.2482498,15.0678557 C18.9833696,15.1901081 18.7796186,15.3887653 18.6369908,15.6638332 C18.494363,15.9389011 18.3924875,16.2292462 18.3313613,16.5348772 C18.4536137,17.1461393 18.6879273,17.5994851 19.0343091,17.8949284 C19.3806909,18.1903717 19.7423489,18.3329974 20.1192938,18.3228097 C20.4962387,18.312622 20.8375215,18.154715 21.1431525,17.849084 C21.4487835,17.543453 21.6117843,17.1053885 21.6321597,16.5348772 C21.6321597,16.2496216 21.5557531,15.9898392 21.4029376,15.7555221 C21.2501221,15.521205 21.0514649,15.3378291 20.8069601,15.205389 C20.5624553,15.0729489 20.3026728,14.9863548 20.0276049,14.945604 C19.752537,14.9048532 19.4927546,14.9456033 19.2482498,15.0678557 Z M30.4342887,28.7906194 C30.2712855,29.0962504 30.1592225,29.4120643 30.0980963,29.7380707 C30.0369701,30.0640771 30.1184704,30.3697036 30.3425999,30.6549592 C30.4852277,30.9605902 30.6940724,31.1796225 30.9691403,31.3120626 C31.2442082,31.4445027 31.5243657,31.5056279 31.8096214,31.4954402 C32.094877,31.4852525 32.364847,31.3884708 32.6195395,31.2050922 C32.874232,31.0217136 33.0423265,30.767025 33.1238281,30.4410185 C33.2460805,29.9927597 33.2307992,29.5954454 33.0779837,29.2490636 C32.9251682,28.9026818 32.7010421,28.6428993 32.4055988,28.4697084 C32.1101555,28.2965175 31.7790602,28.2302984 31.412303,28.2710492 C31.0455458,28.3118 30.7195443,28.4849883 30.4342887,28.7906194 Z" id="%"></path>
                </g>
            </g>
        </g>
    </g>
</svg>