<?xml version="1.0" encoding="UTF-8"?>
<svg width="48px" height="48px" viewBox="0 0 48 48" version="1.1" xmlns="http://www.w3.org/2000/svg" xmlns:xlink="http://www.w3.org/1999/xlink">
    <!-- Generator: sketchtool 51.2 (57519) - http://www.bohemiancoding.com/sketch -->
    <title>F075B462-9FE0-4370-B3E6-D74A0CC37E76</title>
    <desc>Created with sketchtool.</desc>
    <defs>
        <path d="M12,20.0138889 L12,28.3472222 L17.5555556,28.3472222 L24.5,35.2916667 L24.5,13.0694444 L17.5555556,20.0138889 L12,20.0138889 Z M30.75,24.1805556 C30.75,21.7222222 29.3333333,19.6111111 27.2777778,18.5833333 L27.2777778,29.7638889 C29.3333333,28.75 30.75,26.6388889 30.75,24.1805556 Z M27.2777778,12 L27.2777778,14.8611111 C31.2916667,16.0555556 34.2222222,19.7777778 34.2222222,24.1805556 C34.2222222,28.5833333 31.2916667,32.3055556 27.2777778,33.5 L27.2777778,36.3611111 C32.8472222,35.0972222 37,30.125 37,24.1805556 C37,18.2361111 32.8472222,13.2638889 27.2777778,12 Z" id="path-1"></path>
    </defs>
    <g id="pages" stroke="none" stroke-width="1" fill="none" fill-rule="evenodd">
        <g id="universities" transform="translate(-573.000000, -3212.000000)">
            <g id="Group-Copy" transform="translate(-154.000000, 2290.000000)">
                <g id="8" transform="translate(727.000000, 922.000000)">
                    <mask id="mask-2" fill="white">
                        <use xlink:href="#path-1"></use>
                    </mask>
                    <use id="pr" fill="#F6A000" fill-rule="nonzero" xlink:href="#path-1"></use>
                </g>
            </g>
        </g>
    </g>
</svg>