<?xml version="1.0" encoding="UTF-8"?>
<svg width="42px" height="42px" viewBox="0 0 42 42" version="1.1" xmlns="http://www.w3.org/2000/svg" xmlns:xlink="http://www.w3.org/1999/xlink">
    <!-- Generator: sketchtool 51.2 (57519) - http://www.bohemiancoding.com/sketch -->
    <title>1BB02C01-2249-4307-836F-7A1E7A683DE3</title>
    <desc>Created with sketchtool.</desc>
    <defs>
        <path d="M9,28.0006943 L9,33 L13.9993057,33 L28.7439245,18.2553812 L23.7446188,13.2560755 L9,28.0006943 Z M32.6100542,14.3892515 C33.1299819,13.8693237 33.1299819,13.0294404 32.6100542,12.5095126 L29.4904874,9.38994584 C28.9705596,8.87001805 28.1306763,8.87001805 27.6107485,9.38994584 L25.1710873,11.829607 L30.170393,16.8289127 L32.6100542,14.3892515 Z" id="path-1"></path>
    </defs>
    <g id="pages" stroke="none" stroke-width="1" fill="none" fill-rule="evenodd">
        <g id="doi" transform="translate(-504.000000, -1714.000000)">
            <g id="Usloviya" transform="translate(504.000000, 1315.000000)">
                <g id="01-copy-2" transform="translate(0.000000, 399.000000)">
                    <g id="1">
                        <mask id="mask-2" fill="white">
                            <use xlink:href="#path-1"></use>
                        </mask>
                        <use id="icon/content/create_24px" fill="#F6A000" fill-rule="nonzero" xlink:href="#path-1"></use>
                    </g>
                </g>
            </g>
        </g>
    </g>
</svg>