<?xml version="1.0" encoding="UTF-8"?>
<svg width="42px" height="42px" viewBox="0 0 42 42" version="1.1" xmlns="http://www.w3.org/2000/svg" xmlns:xlink="http://www.w3.org/1999/xlink">
    <!-- Generator: sketchtool 51.2 (57519) - http://www.bohemiancoding.com/sketch -->
    <title>B571A61B-FD35-4EC5-A66D-42FCC9E94E6E</title>
    <desc>Created with sketchtool.</desc>
    <defs></defs>
    <g id="pages" stroke="none" stroke-width="1" fill="none" fill-rule="evenodd">
        <g id="doi" transform="translate(-504.000000, -3594.000000)" fill="#F6A000" fill-rule="nonzero">
            <g id="Usloviya-Copy-2" transform="translate(504.000000, 3442.000000)">
                <g id="01" transform="translate(0.000000, 152.000000)">
                    <g id="1">
                        <path d="M36.7926788,26.1312485 L32.296097,18.6361697 L35.5453576,18.6361697 C36.3486545,18.6361697 36.999903,17.9849212 36.999903,17.1816242 C36.999903,16.3783273 36.3486545,15.7270788 35.5453576,15.7270788 L22.4545455,15.7270788 L22.4545455,8.45454545 C22.4545455,7.65124848 21.803297,7 21,7 C20.196703,7 19.5454545,7.65124848 19.5454545,8.45454545 L19.5454545,15.7270788 L6.45454545,15.7270788 C5.65124848,15.7270788 5,16.3783273 5,17.1816242 C5,17.9849212 5.65124848,18.6361697 6.45454545,18.6361697 L9.70380606,18.6361697 L5.20722424,26.1312485 L5.20780606,26.1332848 C5.07670303,26.3516606 5,26.606303 5,26.8795636 C5,30.8897455 8.26244848,34.1522909 12.2727273,34.1522909 C16.2830061,34.1522909 19.5454545,30.8897455 19.5454545,26.8795636 C19.5454545,26.6064 19.4687515,26.3516606 19.3376485,26.1332848 L19.3382303,26.1312485 L14.8416485,18.6361697 L27.1583515,18.6361697 L22.6617697,26.1312485 L22.6622545,26.1332848 C22.5312485,26.3516606 22.4545455,26.6064 22.4545455,26.8795636 C22.4545455,30.8897455 25.7169939,34.1522909 29.7272727,34.1522909 C33.7373576,34.1522909 37,30.8897455 37,26.8795636 C37,26.6064 36.923297,26.3516606 36.7921939,26.1332848 L36.7926788,26.1312485 Z M15.5219879,25.4250182 L9.02346667,25.4250182 L12.2727273,20.0089697 L15.5219879,25.4250182 Z M26.4779152,25.4250182 L29.7272727,20.0089697 L32.9765333,25.4250182 L26.4779152,25.4250182 Z" id="case-icon"></path>
                    </g>
                </g>
            </g>
        </g>
    </g>
</svg>