<?xml version="1.0" encoding="UTF-8"?>
<svg width="42px" height="42px" viewBox="0 0 42 42" version="1.1" xmlns="http://www.w3.org/2000/svg" xmlns:xlink="http://www.w3.org/1999/xlink">
    <!-- Generator: sketchtool 51.2 (57519) - http://www.bohemiancoding.com/sketch -->
    <title>19066DCE-A995-495A-A8B9-977B437455C6</title>
    <desc>Created with sketchtool.</desc>
    <defs>
        <path d="M11.5,14 L9,14 L9,31.5 C9,32.875 10.125,34 11.5,34 L29,34 L29,31.5 L11.5,31.5 L11.5,14 Z M31.5,9 L16.5,9 C15.125,9 14,10.125 14,11.5 L14,26.5 C14,27.875 15.125,29 16.5,29 L31.5,29 C32.875,29 34,27.875 34,26.5 L34,11.5 C34,10.125 32.875,9 31.5,9 Z M30.25,20.25 L17.75,20.25 L17.75,17.75 L30.25,17.75 L30.25,20.25 Z M25.25,25.25 L17.75,25.25 L17.75,22.75 L25.25,22.75 L25.25,25.25 Z M30.25,15.25 L17.75,15.25 L17.75,12.75 L30.25,12.75 L30.25,15.25 Z" id="path-1"></path>
    </defs>
    <g id="pages" stroke="none" stroke-width="1" fill="none" fill-rule="evenodd">
        <g id="doi" transform="translate(-850.000000, -2198.000000)">
            <g id="Usloviya-Copy" transform="translate(504.000000, 2046.000000)">
                <g id="2" transform="translate(346.000000, 152.000000)">
                    <g>
                        <mask id="mask-2" fill="white">
                            <use xlink:href="#path-1"></use>
                        </mask>
                        <use id="icon/av/library_books_24px" fill="#F6A000" fill-rule="nonzero" xlink:href="#path-1"></use>
                    </g>
                </g>
            </g>
        </g>
    </g>
</svg>