<?xml version="1.0" encoding="UTF-8"?>
<svg width="42px" height="42px" viewBox="0 0 42 42" version="1.1" xmlns="http://www.w3.org/2000/svg" xmlns:xlink="http://www.w3.org/1999/xlink">
    <!-- Generator: sketchtool 51.2 (57519) - http://www.bohemiancoding.com/sketch -->
    <title>A0243802-2770-460A-9EF2-4328F3A4E66F</title>
    <desc>Created with sketchtool.</desc>
    <defs>
        <path d="M31.60625,18.305 C30.67125,13.56125 26.505,10 21.5,10 C17.52625,10 14.075,12.255 12.35625,15.555 C8.2175,15.995 5,19.50125 5,23.75 C5,28.30125 8.69875,32 13.25,32 L31.125,32 C34.92,32 38,28.92 38,25.125 C38,21.495 35.18125,18.5525 31.60625,18.305 Z M24.8,22.6666667 L24.8,28 L19.2,28 L19.2,22.6666667 L15,22.6666667 L22,16 L29,22.6666667 L24.8,22.6666667 Z" id="path-1"></path>
    </defs>
    <g id="pages" stroke="none" stroke-width="1" fill="none" fill-rule="evenodd">
        <g id="doi" transform="translate(-504.000000, -3841.000000)">
            <g id="Usloviya-Copy-2" transform="translate(504.000000, 3442.000000)">
                <g id="3" transform="translate(0.000000, 399.000000)">
                    <g>
                        <mask id="mask-2" fill="white">
                            <use xlink:href="#path-1"></use>
                        </mask>
                        <use id="up" fill="#F6A000" fill-rule="nonzero" xlink:href="#path-1"></use>
                    </g>
                </g>
            </g>
        </g>
    </g>
</svg>