<?xml version="1.0" encoding="UTF-8"?>
<svg width="42px" height="42px" viewBox="0 0 42 42" version="1.1" xmlns="http://www.w3.org/2000/svg" xmlns:xlink="http://www.w3.org/1999/xlink">
    <!-- Generator: sketchtool 51.2 (57519) - http://www.bohemiancoding.com/sketch -->
    <title>3065724A-4748-4F79-9EBF-E1079318E519</title>
    <desc>Created with sketchtool.</desc>
    <defs>
        <path d="M8.04,21 C8.04,18.264 10.264,16.04 13,16.04 L19.4,16.04 L19.4,13 L13,13 C8.584,13 5,16.584 5,21 C5,25.416 8.584,29 13,29 L19.4,29 L19.4,25.96 L13,25.96 C10.264,25.96 8.04,23.736 8.04,21 Z M14.6,22.6 L27.4,22.6 L27.4,19.4 L14.6,19.4 L14.6,22.6 Z M29,13 L22.6,13 L22.6,16.04 L29,16.04 C31.736,16.04 33.96,18.264 33.96,21 C33.96,23.736 31.736,25.96 29,25.96 L22.6,25.96 L22.6,29 L29,29 C33.416,29 37,25.416 37,21 C37,16.584 33.416,13 29,13 Z" id="path-1"></path>
    </defs>
    <g id="pages" stroke="none" stroke-width="1" fill="none" fill-rule="evenodd">
        <g id="doi" transform="translate(-850.000000, -3841.000000)">
            <g id="Usloviya-Copy-2" transform="translate(504.000000, 3442.000000)">
                <g id="4" transform="translate(346.000000, 399.000000)">
                    <g>
                        <mask id="mask-2" fill="white">
                            <use xlink:href="#path-1"></use>
                        </mask>
                        <use id="icon/editor/insert_link_24px" fill="#F6A000" fill-rule="nonzero" xlink:href="#path-1"></use>
                    </g>
                </g>
            </g>
        </g>
    </g>
</svg>