<?xml version="1.0" encoding="UTF-8"?>
<svg width="48px" height="48px" viewBox="0 0 48 48" version="1.1" xmlns="http://www.w3.org/2000/svg" xmlns:xlink="http://www.w3.org/1999/xlink">
    <!-- Generator: sketchtool 50 (54983) - http://www.bohemiancoding.com/sketch -->
    <title>B1C0C857-ADB3-4FBD-BF38-7DE1F6A5D919</title>
    <desc>Created with sketchtool.</desc>
    <defs></defs>
    <g id="Page-1" stroke="none" stroke-width="1" fill="none" fill-rule="evenodd">
        <g id="university-3.0" transform="translate(-275.000000, -2089.000000)" fill="#F6A000" fill-rule="nonzero">
            <g id="platform" transform="translate(275.000000, 1856.000000)">
                <g id="01" transform="translate(0.000000, 233.000000)">
                    <path d="M9.6,13.2 L6,13.2 L6,38.4 C6,40.38 7.62,42 9.6,42 L34.8,42 L34.8,38.4 L9.6,38.4 L9.6,13.2 Z M38.4,6 L16.8,6 C14.82,6 13.2,7.62 13.2,9.6 L13.2,31.2 C13.2,33.18 14.82,34.8 16.8,34.8 L38.4,34.8 C40.38,34.8 42,33.18 42,31.2 L42,9.6 C42,7.62 40.38,6 38.4,6 Z M36.6,22.2 L18.6,22.2 L18.6,18.6 L36.6,18.6 L36.6,22.2 Z M29.4,29.4 L18.6,29.4 L18.6,25.8 L29.4,25.8 L29.4,29.4 Z M36.6,15 L18.6,15 L18.6,11.4 L36.6,11.4 L36.6,15 Z" id="merge"></path>
                </g>
            </g>
        </g>
    </g>
</svg>