<?xml version="1.0" encoding="UTF-8"?>
<svg width="48px" height="48px" viewBox="0 0 48 48" version="1.1" xmlns="http://www.w3.org/2000/svg" xmlns:xlink="http://www.w3.org/1999/xlink">
    <!-- Generator: sketchtool 50 (54983) - http://www.bohemiancoding.com/sketch -->
    <title>80723E39-4CA2-43BD-B23E-1DC4988588AA</title>
    <desc>Created with sketchtool.</desc>
    <defs>
        <path d="M40,26 L8,26 C6.9,26 6,26.9 6,28 L6,40 C6,41.1 6.9,42 8,42 L40,42 C41.1,42 42,41.1 42,40 L42,28 C42,26.9 41.1,26 40,26 Z M14,38 C11.8,38 10,36.2 10,34 C10,31.8 11.8,30 14,30 C16.2,30 18,31.8 18,34 C18,36.2 16.2,38 14,38 Z M40,6 L8,6 C6.9,6 6,6.9 6,8 L6,20 C6,21.1 6.9,22 8,22 L40,22 C41.1,22 42,21.1 42,20 L42,8 C42,6.9 41.1,6 40,6 Z M14,18 C11.8,18 10,16.2 10,14 C10,11.8 11.8,10 14,10 C16.2,10 18,11.8 18,14 C18,16.2 16.2,18 14,18 Z" id="path-1"></path>
    </defs>
    <g id="Page-1" stroke="none" stroke-width="1" fill="none" fill-rule="evenodd">
        <g id="university-3.0" transform="translate(-600.000000, -2088.000000)">
            <g id="platform" transform="translate(275.000000, 1856.000000)">
                <g id="02" transform="translate(325.000000, 232.000000)">
                    <mask id="mask-2" fill="white">
                        <use xlink:href="#path-1"></use>
                    </mask>
                    <use id="complex" fill="#F6A000" fill-rule="nonzero" xlink:href="#path-1"></use>
                </g>
            </g>
        </g>
    </g>
</svg>