<?xml version="1.0" encoding="UTF-8"?>
<svg width="48px" height="48px" viewBox="0 0 48 48" version="1.1" xmlns="http://www.w3.org/2000/svg" xmlns:xlink="http://www.w3.org/1999/xlink">
    <!-- Generator: sketchtool 50 (54983) - http://www.bohemiancoding.com/sketch -->
    <title>5333590A-BE52-4D58-A9C4-60E1207563E6</title>
    <desc>Created with sketchtool.</desc>
    <defs>
        <path d="M41.1,12.6 L37.3,12.6 L37.3,29.7 L12.6,29.7 L12.6,33.5 C12.6,34.545 13.455,35.4 14.5,35.4 L35.4,35.4 L43,43 L43,14.5 C43,13.455 42.145,12.6 41.1,12.6 Z M33.5,24 L33.5,6.9 C33.5,5.855 32.645,5 31.6,5 L6.9,5 C5.855,5 5,5.855 5,6.9 L5,33.5 L12.6,25.9 L31.6,25.9 C32.645,25.9 33.5,25.045 33.5,24 Z" id="path-1"></path>
    </defs>
    <g id="Page-1" stroke="none" stroke-width="1" fill="none" fill-rule="evenodd">
        <g id="university-3.0" transform="translate(-926.000000, -2377.000000)">
            <g id="platform" transform="translate(275.000000, 1856.000000)">
                <g id="05-copy" transform="translate(651.000000, 521.000000)">
                    <mask id="mask-2" fill="white">
                        <use xlink:href="#path-1"></use>
                    </mask>
                    <use id="communic" fill="#F6A000" fill-rule="nonzero" xlink:href="#path-1"></use>
                </g>
            </g>
        </g>
    </g>
</svg>