<?xml version="1.0" encoding="utf-8"?>
<!-- Generator: Adobe Illustrator 22.1.0, SVG Export Plug-In . SVG Version: 6.00 Build 0)  -->
<svg version="1.1" id="Layer_1" xmlns="http://www.w3.org/2000/svg" xmlns:xlink="http://www.w3.org/1999/xlink" x="0px" y="0px"
	 viewBox="0 0 24 24" style="enable-background:new 0 0 24 24;" xml:space="preserve">
<style type="text/css">
	.st0{filter:url(#filter-2);}
	.st1{fill:#F6A000;}
	.st2{fill:#FFFFFF;}
</style>
<filter  filterUnits="objectBoundingBox" height="391.7%" id="filter-2" width="391.7%" x="-145.8%" y="-104.2%">
	<feOffset  dx="0" dy="10" in="SourceAlpha" result="shadowOffsetOuter1"></feOffset>
	<feGaussianBlur  in="shadowOffsetOuter1" result="shadowBlurOuter1" stdDeviation="10"></feGaussianBlur>
	<feColorMatrix  in="shadowBlurOuter1" type="matrix" values="0 0 0 0 0   0 0 0 0 0   0 0 0 0 0  0 0 0 0.1 0"></feColorMatrix>
</filter>
<title>F807F1EC-30B7-427A-8263-75B2FBBCBA83</title>
<desc>Created with sketchtool.</desc>
<g id="Page-1">
	<g id="main-page" transform="translate(-705.000000, -3721.000000)">
		<g id="TESTIMONIALS" transform="translate(247.000000, 3071.000000)">
			<g id="Arrows" transform="translate(435.000000, 659.000000)">
				<g id="arrw-hover" transform="translate(42.000000, 0.000000)">
					<g id="Bg">
						<g class="st0">
							<path id="path-1_2_" d="M-7-9L-7-9C-0.4-9,5-3.6,5,3l0,0C5,9.6-0.4,15-7,15l0,0c-6.6,0-12-5.4-12-12l0,0C-19-3.6-13.6-9-7-9z
								"/>
						</g>
						<g>
							<path id="path-1_1_" class="st1" d="M-7-9L-7-9C-0.4-9,5-3.6,5,3l0,0C5,9.6-0.4,15-7,15l0,0c-6.6,0-12-5.4-12-12l0,0
								C-19-3.6-13.6-9-7-9z"/>
						</g>
					</g>
					<path id="Shape" class="st2" d="M-4.8,3.4L-8.4,7C-8.6,7.3-9,7.3-9.2,7c-0.2-0.2-0.2-0.6,0-0.8L-6,3l-3.2-3.2
						c-0.2-0.2-0.2-0.6,0-0.8C-9-1.3-8.6-1.3-8.4-1l3.6,3.6C-4.7,2.7-4.6,2.8-4.6,3C-4.6,3.1-4.7,3.3-4.8,3.4z"/>
				</g>
			</g>
		</g>
	</g>
</g>
</svg>
