<?xml version="1.0" encoding="UTF-8"?>
<svg width="64px" height="64px" viewBox="0 0 64 64" version="1.1" xmlns="http://www.w3.org/2000/svg" xmlns:xlink="http://www.w3.org/1999/xlink">
    <!-- Generator: sketchtool 51.2 (57519) - http://www.bohemiancoding.com/sketch -->
    <title>D6039D7E-2DFF-4B25-8E59-3EDF16843261</title>
    <desc>Created with sketchtool.</desc>
    <defs></defs>
    <g id="pages" stroke="none" stroke-width="1" fill="none" fill-rule="evenodd">
        <g id="news-inner" transform="translate(-130.000000, -736.000000)">
            <g id="share" transform="translate(130.000000, 547.000000)">
                <g id="tg" transform="translate(0.000000, 189.000000)">
                    <rect id="Rectangle-4" stroke="#E0E4EA" fill="#FFFFFF" x="0.5" y="0.5" width="63" height="63"></rect>
                    <path d="M38.085982,40.3067746 C38.3677256,40.5062748 38.7308423,40.5561499 39.0545849,40.4336497 C39.3783276,40.3102746 39.6163222,40.0337743 39.6880705,39.6986489 C40.4484282,36.1251448 42.2928862,27.0802594 42.9849955,23.8296306 C43.0374943,23.5846304 42.9499963,23.3300051 42.7575007,23.1663799 C42.565005,23.0027547 42.2981361,22.9555046 42.0601415,23.0438797 C38.39135,24.4018813 27.0927322,28.6412612 22.4745873,30.3501381 C22.181469,30.4586383 21.9907233,30.7403886 22.0003481,31.0492639 C22.0108479,31.3590143 22.2190931,31.6276396 22.5192113,31.7177647 C24.5902892,32.3372654 27.3088523,33.1991414 27.3088523,33.1991414 C27.3088523,33.1991414 28.5793234,37.0360208 29.2416833,38.9872731 C29.3248064,39.2322733 29.516427,39.4247736 29.7692963,39.4912736 C30.0212906,39.5568987 30.2907844,39.4877736 30.4789051,39.3101484 C31.5428809,38.3056473 33.1878435,36.7525205 33.1878435,36.7525205 C33.1878435,36.7525205 36.3132723,39.0441481 38.085982,40.3067746 Z M28.4524513,32.7143908 L29.9215428,37.5601464 L30.2479104,34.4915179 C30.2479104,34.4915179 35.9239062,29.371887 39.1595826,26.4537587 C39.2540804,26.3680086 39.2672051,26.2245084 39.1884569,26.1238833 C39.1105837,26.0232582 38.9670869,25.9996331 38.8594644,26.0678832 C35.1092997,28.462761 28.4524513,32.7143908 28.4524513,32.7143908 Z" id="iconmonstr-telegram-1" fill="#E0E4EA"></path>
                </g>
            </g>
        </g>
    </g>
</svg>