<?xml version="1.0" encoding="UTF-8"?>
<svg width="64px" height="64px" viewBox="0 0 64 64" version="1.1" xmlns="http://www.w3.org/2000/svg" xmlns:xlink="http://www.w3.org/1999/xlink">
    <!-- Generator: sketchtool 51.2 (57519) - http://www.bohemiancoding.com/sketch -->
    <title>83B14A0E-71AA-4907-80CC-0219D5DB773F</title>
    <desc>Created with sketchtool.</desc>
    <defs></defs>
    <g id="pages" stroke="none" stroke-width="1" fill="none" fill-rule="evenodd">
        <g id="news-inner" transform="translate(-130.000000, -547.000000)">
            <g id="share" transform="translate(130.000000, 547.000000)">
                <g id="vk">
                    <rect id="Rectangle-4" stroke="#E0E4EA" fill="#FFFFFF" x="0.5" y="0.5" width="63" height="63"></rect>
                    <path d="M32.8475711,38.9456642 C32.8475711,38.9456642 33.2698897,38.899969 33.4861993,38.6737222 C33.6841969,38.4664222 33.6773299,38.0752271 33.6773299,38.0752271 C33.6773299,38.0752271 33.6510065,36.2485352 34.5219671,35.9788223 C35.3803383,35.7135674 36.4824868,37.7453303 37.6521606,38.5266061 C38.5357106,39.1172996 39.2063846,38.9880158 39.2063846,38.9880158 L42.3320002,38.9456642 C42.3320002,38.9456642 43.9663388,38.8475867 43.1915158,37.5959851 C43.1274241,37.4934497 42.7394403,36.6698223 40.8681912,34.9779868 C38.9076715,33.2070207 39.1709053,33.4934513 41.5308537,30.4296465 C42.9683393,28.5639466 43.5428757,27.4249111 43.36319,26.9378676 C43.1926603,26.4719998 42.135147,26.5957111 42.135147,26.5957111 L38.6169698,26.6168869 C38.6169698,26.6168869 38.356025,26.5823369 38.1626053,26.6949031 C37.9737637,26.8052402 37.8513027,27.0626934 37.8513027,27.0626934 C37.8513027,27.0626934 37.2950782,28.5059917 36.552301,29.7341885 C34.9854875,32.3243239 34.3594488,32.4614094 34.103082,32.3009191 C33.5068002,31.9253272 33.6555845,30.7940933 33.6555845,29.9905272 C33.6555845,27.4795224 34.0470017,26.4329918 32.8944954,26.1621644 C32.5122341,26.0718886 32.2306884,26.0128192 31.2521453,26.0027886 C29.9966344,25.9905289 28.9345431,26.0072466 28.3325388,26.2936773 C27.9319656,26.4842595 27.622952,26.9100047 27.8117937,26.934524 C28.0441261,26.964616 28.5705938,27.072724 28.8498505,27.4427434 C29.2103664,27.9208708 29.197777,28.9930353 29.197777,28.9930353 C29.197777,28.9930353 29.4049305,31.948732 28.7136556,32.3154078 C28.2398347,32.5672884 27.5897617,32.0534965 26.1923334,29.702982 C25.4770241,28.4993046 24.9368225,27.1685724 24.9368225,27.1685724 C24.9368225,27.1685724 24.8326735,26.9200353 24.6461208,26.7862934 C24.4206553,26.6246885 24.1059193,26.5745353 24.1059193,26.5745353 L20.7628497,26.5957111 C20.7628497,26.5957111 20.2604165,26.6090853 20.0761528,26.8219579 C19.91249,27.0103111 20.0635634,27.4015063 20.0635634,27.4015063 C20.0635634,27.4015063 22.6810231,33.365282 25.6452649,36.3711319 C28.3634402,39.1262158 31.4489984,38.9456642 31.4489984,38.9456642 L32.8475711,38.9456642 Z" id="Shape" fill="#E0E4EA"></path>
                </g>
            </g>
        </g>
    </g>
</svg>